<?xml version="1.0" encoding="UTF-8" standalone="no"?>
<!-- Created with Inkscape (http://www.inkscape.org/) -->

<svg
   xmlns:dc="http://purl.org/dc/elements/1.1/"
   xmlns:cc="http://creativecommons.org/ns#"
   xmlns:rdf="http://www.w3.org/1999/02/22-rdf-syntax-ns#"
   xmlns:svg="http://www.w3.org/2000/svg"
   xmlns="http://www.w3.org/2000/svg"
   xmlns:xlink="http://www.w3.org/1999/xlink"
   xmlns:sodipodi="http://sodipodi.sourceforge.net/DTD/sodipodi-0.dtd"
   xmlns:inkscape="http://www.inkscape.org/namespaces/inkscape"
   width="757.33331"
   height="446.66666"
   viewBox="0 0 200.37775 118.18056"
   version="1.1"
   id="svg8"
   inkscape:version="0.92.2 (5c3e80d, 2017-08-06)"
   sodipodi:docname="50mins.svg"
   inkscape:export-filename="/home/barinkl/Dokumenty/Skola/FIT/if18/memes/be_in_time.png"
   inkscape:export-xdpi="245.75999"
   inkscape:export-ydpi="245.75999">
  <defs
     id="defs2">
    <filter
       inkscape:collect="always"
       style="color-interpolation-filters:sRGB"
       id="filter2776"
       x="-0.023222233"
       width="1.0464445"
       y="-0.29274881"
       height="1.5854976">
      <feGaussianBlur
         inkscape:collect="always"
         stdDeviation="1.1342799"
         id="feGaussianBlur2778" />
    </filter>
    <filter
       inkscape:collect="always"
       style="color-interpolation-filters:sRGB"
       id="filter2780"
       x="-0.02447553"
       width="1.0489511"
       y="-0.29274881"
       height="1.5854976">
      <feGaussianBlur
         inkscape:collect="always"
         stdDeviation="1.1342799"
         id="feGaussianBlur2782" />
    </filter>
  </defs>
  <sodipodi:namedview
     id="base"
     pagecolor="#ffffff"
     bordercolor="#666666"
     borderopacity="1.0"
     inkscape:pageopacity="0.0"
     inkscape:pageshadow="2"
     inkscape:zoom="1.0416666"
     inkscape:cx="364.20329"
     inkscape:cy="318.99155"
     inkscape:document-units="mm"
     inkscape:current-layer="layer1"
     showgrid="false"
     units="px"
     fit-margin-top="0"
     fit-margin-left="0"
     fit-margin-right="0"
     fit-margin-bottom="0"
     inkscape:window-width="1920"
     inkscape:window-height="1016"
     inkscape:window-x="1680"
     inkscape:window-y="27"
     inkscape:window-maximized="1" />
  <metadata
     id="metadata5">
    <rdf:RDF>
      <cc:Work
         rdf:about="">
        <dc:format>image/svg+xml</dc:format>
        <dc:type
           rdf:resource="http://purl.org/dc/dcmitype/StillImage" />
        <dc:title></dc:title>
      </cc:Work>
    </rdf:RDF>
  </metadata>
  <g
     inkscape:label="Vrstva 1"
     inkscape:groupmode="layer"
     id="layer1"
     transform="translate(-280.1207,-313.06061)">
    <flowRoot
       xml:space="preserve"
       id="flowRoot9967"
       style="font-style:normal;font-variant:normal;font-weight:normal;font-stretch:normal;font-size:15px;line-height:25px;font-family:'Liberation Sans';-inkscape-font-specification:'Liberation Sans, Normal';text-align:start;letter-spacing:0px;word-spacing:0px;writing-mode:lr-tb;text-anchor:start;fill:#000000;fill-opacity:1;stroke:none;stroke-width:1px;stroke-linecap:butt;stroke-linejoin:miter;stroke-opacity:1"><flowRegion
         id="flowRegion9969"><rect
           id="rect9971"
           width="369.95828"
           height="335.33832"
           x="32.583481"
           y="-43.477158" /></flowRegion><flowPara
         id="flowPara9973" /></flowRoot>    <flowRoot
       xml:space="preserve"
       id="flowRoot1048"
       style="font-style:normal;font-variant:normal;font-weight:300;font-stretch:normal;font-size:42.66666794px;line-height:25px;font-family:Roboto;-inkscape-font-specification:'Roboto, Light';text-align:start;letter-spacing:0px;word-spacing:0px;writing-mode:lr-tb;text-anchor:start;fill:#000000;fill-opacity:1;stroke:none;stroke-width:1px;stroke-linecap:butt;stroke-linejoin:miter;stroke-opacity:1"
       transform="matrix(0.26458333,0,0,0.26458333,230.81644,274.62451)"><flowRegion
         id="flowRegion1050"><rect
           id="rect1052"
           width="462.72003"
           height="141.12001"
           x="102.72001"
           y="-36.64003" /></flowRegion><flowPara
         id="flowPara1054" /></flowRoot>    <flowRoot
       xml:space="preserve"
       id="flowRoot2474"
       style="font-style:normal;font-variant:normal;font-weight:300;font-stretch:normal;font-size:42.66666794px;line-height:25px;font-family:Roboto;-inkscape-font-specification:'Roboto, Light';text-align:start;letter-spacing:0px;word-spacing:0px;writing-mode:lr-tb;text-anchor:start;fill:#000000;fill-opacity:1;stroke:none;stroke-width:1px;stroke-linecap:butt;stroke-linejoin:miter;stroke-opacity:1"
       transform="matrix(0.26458333,0,0,0.26458333,134.05302,273.14813)"><flowRegion
         id="flowRegion2476"><rect
           id="rect2478"
           width="710.40002"
           height="443.52002"
           x="-367.68002"
           y="-230.08008" /></flowRegion><flowPara
         id="flowPara2480" /></flowRoot>    <image
       sodipodi:absref="/home/barinkl/Dokumenty/Skola/FIT/if18/sources/One-Does-Not-Simply.jpg"
       y="313.06061"
       x="280.1207"
       id="image2745"
       xlink:href="file:///home/barinkl/Dokumenty/Skola/FIT/if18/sources/One-Does-Not-Simply.jpg"
       preserveAspectRatio="none"
       height="118.18055"
       width="200.37778" />
    <text
       id="text2762"
       y="325.42996"
       x="380.04776"
       style="font-style:normal;font-variant:normal;font-weight:normal;font-stretch:condensed;font-size:11.28888893px;line-height:10.58333302px;font-family:Impact;-inkscape-font-specification:'Impact, Condensed';font-variant-ligatures:normal;font-variant-caps:normal;font-variant-numeric:normal;font-feature-settings:normal;text-align:center;letter-spacing:0px;word-spacing:0px;writing-mode:lr-tb;text-anchor:middle;fill:#000000;fill-opacity:1;stroke:#000000;stroke-width:0.39687499;stroke-linecap:butt;stroke-linejoin:miter;stroke-miterlimit:4;stroke-dasharray:none;stroke-opacity:1;filter:url(#filter2776)"
       xml:space="preserve"><tspan
         id="tspan2760"
         style="font-style:normal;font-variant:normal;font-weight:normal;font-stretch:condensed;font-size:11.28888893px;font-family:Impact;-inkscape-font-specification:'Impact, Condensed';font-variant-ligatures:normal;font-variant-caps:normal;font-variant-numeric:normal;font-feature-settings:normal;text-align:center;writing-mode:lr-tb;text-anchor:middle;fill:#000000;stroke:#000000;stroke-width:0.39687499;stroke-miterlimit:4;stroke-dasharray:none;stroke-opacity:1"
         y="325.42996"
         x="380.04776"
         sodipodi:role="line">BARINKA DOES NOT SIMPLY</tspan></text>
    <text
       xml:space="preserve"
       style="font-style:normal;font-variant:normal;font-weight:normal;font-stretch:condensed;font-size:11.28888893px;line-height:10.58333302px;font-family:Impact;-inkscape-font-specification:'Impact, Condensed';font-variant-ligatures:normal;font-variant-caps:normal;font-variant-numeric:normal;font-feature-settings:normal;text-align:center;letter-spacing:0px;word-spacing:0px;writing-mode:lr-tb;text-anchor:middle;fill:#ffffff;fill-opacity:1;stroke:#000000;stroke-width:0.39687499;stroke-linecap:butt;stroke-linejoin:miter;stroke-miterlimit:4;stroke-dasharray:none;stroke-opacity:1"
       x="380.04776"
       y="325.42996"
       id="text164"><tspan
         sodipodi:role="line"
         x="380.04776"
         y="325.42996"
         style="font-style:normal;font-variant:normal;font-weight:normal;font-stretch:condensed;font-size:11.28888893px;font-family:Impact;-inkscape-font-specification:'Impact, Condensed';font-variant-ligatures:normal;font-variant-caps:normal;font-variant-numeric:normal;font-feature-settings:normal;text-align:center;writing-mode:lr-tb;text-anchor:middle;stroke:#000000;stroke-width:0.39687499;stroke-miterlimit:4;stroke-dasharray:none;stroke-opacity:1"
         id="tspan1774">BARINKA DOES NOT SIMPLY</tspan></text>
    <text
       xml:space="preserve"
       style="font-style:normal;font-variant:normal;font-weight:normal;font-stretch:condensed;font-size:11.28888893px;line-height:10.58333302px;font-family:Impact;-inkscape-font-specification:'Impact, Condensed';font-variant-ligatures:normal;font-variant-caps:normal;font-variant-numeric:normal;font-feature-settings:normal;text-align:center;letter-spacing:0px;word-spacing:0px;writing-mode:lr-tb;text-anchor:middle;fill:#000000;fill-opacity:1;stroke:#000000;stroke-width:0.39687499;stroke-linecap:butt;stroke-linejoin:miter;stroke-miterlimit:4;stroke-dasharray:none;stroke-opacity:1;filter:url(#filter2780)"
       x="380.05051"
       y="427.87668"
       id="text2766"><tspan
         sodipodi:role="line"
         x="380.05051"
         y="427.87668"
         style="font-style:normal;font-variant:normal;font-weight:normal;font-stretch:condensed;font-size:11.28888893px;font-family:Impact;-inkscape-font-specification:'Impact, Condensed';font-variant-ligatures:normal;font-variant-caps:normal;font-variant-numeric:normal;font-feature-settings:normal;text-align:center;writing-mode:lr-tb;text-anchor:middle;stroke:#000000;stroke-width:0.39687499;stroke-miterlimit:4;stroke-dasharray:none;stroke-opacity:1;fill:#000000;"
         id="tspan2764">BE IN TIME WITH HIS TALK</tspan></text>
    <text
       id="text2750"
       y="427.87668"
       x="380.05051"
       style="font-style:normal;font-variant:normal;font-weight:normal;font-stretch:condensed;font-size:11.28888893px;line-height:10.58333302px;font-family:Impact;-inkscape-font-specification:'Impact, Condensed';font-variant-ligatures:normal;font-variant-caps:normal;font-variant-numeric:normal;font-feature-settings:normal;text-align:center;letter-spacing:0px;word-spacing:0px;writing-mode:lr-tb;text-anchor:middle;fill:#ffffff;fill-opacity:1;stroke:#000000;stroke-width:0.39687499;stroke-linecap:butt;stroke-linejoin:miter;stroke-miterlimit:4;stroke-dasharray:none;stroke-opacity:1"
       xml:space="preserve"><tspan
         id="tspan2748"
         style="font-style:normal;font-variant:normal;font-weight:normal;font-stretch:condensed;font-size:11.28888893px;font-family:Impact;-inkscape-font-specification:'Impact, Condensed';font-variant-ligatures:normal;font-variant-caps:normal;font-variant-numeric:normal;font-feature-settings:normal;text-align:center;writing-mode:lr-tb;text-anchor:middle;stroke:#000000;stroke-width:0.39687499;stroke-miterlimit:4;stroke-dasharray:none;stroke-opacity:1"
         y="427.87668"
         x="380.05051"
         sodipodi:role="line">BE IN TIME WITH HIS TALK</tspan></text>
    <flowRoot
       xml:space="preserve"
       id="flowRoot2752"
       style="fill:black;stroke:none;stroke-opacity:1;stroke-width:1px;stroke-linejoin:miter;stroke-linecap:butt;fill-opacity:1;font-family:Roboto;font-style:normal;font-weight:300;font-size:42.66666667px;line-height:25px;letter-spacing:0px;word-spacing:0px;-inkscape-font-specification:'Roboto, Light';font-stretch:normal;font-variant:normal;text-anchor:start;text-align:start;writing-mode:lr"><flowRegion
         id="flowRegion2754"><rect
           id="rect2756"
           width="676.80005"
           height="428.16003"
           x="-109.44001"
           y="-199.41339" /></flowRegion><flowPara
         id="flowPara2758"></flowPara></flowRoot>  </g>
</svg>
