<?xml version="1.0" encoding="UTF-8" standalone="no"?>
<!-- Created with Inkscape (http://www.inkscape.org/) -->

<svg
   xmlns:dc="http://purl.org/dc/elements/1.1/"
   xmlns:cc="http://creativecommons.org/ns#"
   xmlns:rdf="http://www.w3.org/1999/02/22-rdf-syntax-ns#"
   xmlns:svg="http://www.w3.org/2000/svg"
   xmlns="http://www.w3.org/2000/svg"
   xmlns:xlink="http://www.w3.org/1999/xlink"
   xmlns:sodipodi="http://sodipodi.sourceforge.net/DTD/sodipodi-0.dtd"
   xmlns:inkscape="http://www.inkscape.org/namespaces/inkscape"
   width="600"
   height="908"
   viewBox="0 0 158.75 240.24168"
   version="1.1"
   id="svg8"
   inkscape:version="0.92.2 (5c3e80d, 2017-08-06)"
   sodipodi:docname="blocks.svg"
   inkscape:export-filename="/home/barinkl/Dokumenty/Skola/FIT/if18/memes/blocks.png"
   inkscape:export-xdpi="153.60001"
   inkscape:export-ydpi="153.60001">
  <defs
     id="defs2">
    <filter
       inkscape:collect="always"
       style="color-interpolation-filters:sRGB"
       id="filter14402"
       x="-0.030612533"
       width="1.0612251"
       y="-0.084160572"
       height="1.1683211">
      <feGaussianBlur
         inkscape:collect="always"
         stdDeviation="0.58843545"
         id="feGaussianBlur14404" />
    </filter>
    <filter
       inkscape:collect="always"
       style="color-interpolation-filters:sRGB"
       id="filter14406"
       x="-0.042289312"
       width="1.0845786"
       y="-0.09845199"
       height="1.196904">
      <feGaussianBlur
         inkscape:collect="always"
         stdDeviation="0.58843545"
         id="feGaussianBlur14408" />
    </filter>
  </defs>
  <sodipodi:namedview
     id="base"
     pagecolor="#ffffff"
     bordercolor="#666666"
     borderopacity="1.0"
     inkscape:pageopacity="0.0"
     inkscape:pageshadow="2"
     inkscape:zoom="0.41100582"
     inkscape:cx="697.77706"
     inkscape:cy="583.8624"
     inkscape:document-units="mm"
     inkscape:current-layer="layer1"
     showgrid="false"
     units="px"
     fit-margin-top="0"
     fit-margin-left="0"
     fit-margin-right="0"
     fit-margin-bottom="0"
     inkscape:window-width="1920"
     inkscape:window-height="1016"
     inkscape:window-x="0"
     inkscape:window-y="27"
     inkscape:window-maximized="1" />
  <metadata
     id="metadata5">
    <rdf:RDF>
      <cc:Work
         rdf:about="">
        <dc:format>image/svg+xml</dc:format>
        <dc:type
           rdf:resource="http://purl.org/dc/dcmitype/StillImage" />
        <dc:title></dc:title>
      </cc:Work>
    </rdf:RDF>
  </metadata>
  <g
     inkscape:label="Vrstva 1"
     inkscape:groupmode="layer"
     id="layer1"
     transform="translate(-504.82779,-224.49911)">
    <image
       sodipodi:absref="/home/barinkl/Dokumenty/Skola/FIT/if18/sources/Two-Buttons.jpg"
       y="224.49911"
       x="504.82779"
       id="image14379"
       xlink:href="file:///home/barinkl/Dokumenty/Skola/FIT/if18/sources/Two-Buttons.jpg"
       preserveAspectRatio="none"
       height="240.24167"
       width="158.75" />
    <flowRoot
       xml:space="preserve"
       id="flowRoot9967"
       style="font-style:normal;font-variant:normal;font-weight:normal;font-stretch:normal;font-size:15px;line-height:25px;font-family:'Liberation Sans';-inkscape-font-specification:'Liberation Sans, Normal';text-align:start;letter-spacing:0px;word-spacing:0px;writing-mode:lr-tb;text-anchor:start;fill:#000000;fill-opacity:1;stroke:none;stroke-width:1px;stroke-linecap:butt;stroke-linejoin:miter;stroke-opacity:1"><flowRegion
         id="flowRegion9969"><rect
           id="rect9971"
           width="369.95828"
           height="335.33832"
           x="32.583481"
           y="-43.477158" /></flowRegion><flowPara
         id="flowPara9973" /></flowRoot>    <text
       xml:space="preserve"
       style="font-style:normal;font-variant:normal;font-weight:normal;font-stretch:condensed;font-size:17.88043022px;line-height:10.47681522px;font-family:Impact;-inkscape-font-specification:'Impact, Condensed';font-variant-ligatures:normal;font-variant-caps:normal;font-variant-numeric:normal;font-feature-settings:normal;text-align:center;letter-spacing:0px;word-spacing:0px;writing-mode:lr-tb;text-anchor:middle;fill:#000000;fill-opacity:1;stroke:#000000;stroke-width:0.62860888;stroke-linecap:butt;stroke-linejoin:miter;stroke-miterlimit:4;stroke-dasharray:none;stroke-opacity:1;filter:url(#filter14402)"
       x="544.98151"
       y="265.61816"
       id="text14388"><tspan
         sodipodi:role="line"
         id="tspan14386"
         x="544.98151"
         y="265.61816"
         style="font-style:normal;font-variant:normal;font-weight:normal;font-stretch:condensed;font-size:17.88043022px;font-family:Impact;-inkscape-font-specification:'Impact, Condensed';font-variant-ligatures:normal;font-variant-caps:normal;font-variant-numeric:normal;font-feature-settings:normal;text-align:center;writing-mode:lr-tb;text-anchor:middle;stroke:#000000;stroke-width:0.62860888;stroke-miterlimit:4;stroke-dasharray:none;stroke-opacity:1;fill:#000000;">{ list; }</tspan></text>
    <text
       id="text14258"
       y="265.61816"
       x="544.98151"
       style="font-style:normal;font-variant:normal;font-weight:normal;font-stretch:condensed;font-size:17.88043022px;line-height:10.47681522px;font-family:Impact;-inkscape-font-specification:'Impact, Condensed';font-variant-ligatures:normal;font-variant-caps:normal;font-variant-numeric:normal;font-feature-settings:normal;text-align:center;letter-spacing:0px;word-spacing:0px;writing-mode:lr-tb;text-anchor:middle;fill:#ffffff;fill-opacity:1;stroke:#000000;stroke-width:0.62860888;stroke-linecap:butt;stroke-linejoin:miter;stroke-miterlimit:4;stroke-dasharray:none;stroke-opacity:1"
       xml:space="preserve"><tspan
         style="font-style:normal;font-variant:normal;font-weight:normal;font-stretch:condensed;font-size:17.88043022px;font-family:Impact;-inkscape-font-specification:'Impact, Condensed';font-variant-ligatures:normal;font-variant-caps:normal;font-variant-numeric:normal;font-feature-settings:normal;text-align:center;writing-mode:lr-tb;text-anchor:middle;stroke:#000000;stroke-width:0.62860888;stroke-miterlimit:4;stroke-dasharray:none;stroke-opacity:1"
         y="265.61816"
         x="544.98151"
         id="tspan14256"
         sodipodi:role="line">{ list; }</tspan></text>
    <text
       id="text14392"
       y="256.60571"
       x="597.125"
       style="font-style:normal;font-variant:normal;font-weight:normal;font-stretch:condensed;font-size:17.88043022px;line-height:10.47681522px;font-family:Impact;-inkscape-font-specification:'Impact, Condensed';font-variant-ligatures:normal;font-variant-caps:normal;font-variant-numeric:normal;font-feature-settings:normal;text-align:center;letter-spacing:0px;word-spacing:0px;writing-mode:lr-tb;text-anchor:middle;fill:#000000;fill-opacity:1;stroke:#000000;stroke-width:0.62860888;stroke-linecap:butt;stroke-linejoin:miter;stroke-miterlimit:4;stroke-dasharray:none;stroke-opacity:1;filter:url(#filter14406)"
       xml:space="preserve"><tspan
         style="font-style:normal;font-variant:normal;font-weight:normal;font-stretch:condensed;font-size:17.88043022px;font-family:Impact;-inkscape-font-specification:'Impact, Condensed';font-variant-ligatures:normal;font-variant-caps:normal;font-variant-numeric:normal;font-feature-settings:normal;text-align:center;writing-mode:lr-tb;text-anchor:middle;stroke:#000000;stroke-width:0.62860888;stroke-miterlimit:4;stroke-dasharray:none;stroke-opacity:1;fill:#000000;"
         y="256.60571"
         x="597.125"
         id="tspan14390"
         sodipodi:role="line">(list)</tspan></text>
    <text
       xml:space="preserve"
       style="font-style:normal;font-variant:normal;font-weight:normal;font-stretch:condensed;font-size:17.88043022px;line-height:10.47681522px;font-family:Impact;-inkscape-font-specification:'Impact, Condensed';font-variant-ligatures:normal;font-variant-caps:normal;font-variant-numeric:normal;font-feature-settings:normal;text-align:center;letter-spacing:0px;word-spacing:0px;writing-mode:lr-tb;text-anchor:middle;fill:#ffffff;fill-opacity:1;stroke:#000000;stroke-width:0.62860888;stroke-linecap:butt;stroke-linejoin:miter;stroke-miterlimit:4;stroke-dasharray:none;stroke-opacity:1"
       x="597.125"
       y="256.60571"
       id="text14384"><tspan
         sodipodi:role="line"
         id="tspan14382"
         x="597.125"
         y="256.60571"
         style="font-style:normal;font-variant:normal;font-weight:normal;font-stretch:condensed;font-size:17.88043022px;font-family:Impact;-inkscape-font-specification:'Impact, Condensed';font-variant-ligatures:normal;font-variant-caps:normal;font-variant-numeric:normal;font-feature-settings:normal;text-align:center;writing-mode:lr-tb;text-anchor:middle;stroke:#000000;stroke-width:0.62860888;stroke-miterlimit:4;stroke-dasharray:none;stroke-opacity:1">(list)</tspan></text>
  </g>
</svg>
